================================================================================
API VALIDATION REPORT - MARKETPLACE PRODUCTS ENDPOINT
================================================================================
Date: December 3, 2025
Endpoint: GET /products
Status: ✅ VALIDATED - Minor adjustments needed

================================================================================
📊 BACKEND RESPONSE STRUCTURE
================================================================================

ProductController::index() returns:
```json
{
  "status": "success",
  "message": "Products retrieved successfully",
  "data": {
    "listings": [
      {
        "id": 1,
        "seller_id": 5,
        "category_id": 3,
        "title": "Product Name",
        "description": "Product description",
        "price": "99.99",
        "stock": 10,
        "primary_image": "products/image.jpg",
        "images": ["products/img1.jpg", "products/img2.jpg"],
        "thumbnail": "products/thumb.jpg",
        "status": "active",
        "condition": "new",
        "brand": "Brand Name",
        "weight": "1.50",
        "dimensions": "10x10x10",
        "featured": true,
        "views": 150,
        "sold": 5,
        "created_at": "2024-01-01T00:00:00.000000Z",
        "updated_at": "2024-01-01T00:00:00.000000Z",
        
        // Appended attributes
        "primary_image_url": "https://envisagezm.com/storage/products/image.jpg",
        "thumbnail_url": "https://envisagezm.com/storage/products/thumb.jpg",
        "images_urls": [
          "https://envisagezm.com/storage/products/img1.jpg",
          "https://envisagezm.com/storage/products/img2.jpg"
        ],
        
        // Relationships (with eager loading)
        "seller": {
          "id": 5,
          "name": "Seller Name",
          "email": "seller@example.com"
        },
        "category": {
          "id": 3,
          "name": "Electronics"
        }
      }
    ],
    "pagination": {
      "total": 100,
      "per_page": 20,
      "current_page": 1,
      "last_page": 5,
      "has_more": true
    }
  }
}
```

================================================================================
🎯 FRONTEND LISTING INTERFACE EXPECTATIONS
================================================================================

Current Interface (frontend/lib/api.ts):
```typescript
export interface Listing {
  id: number;
  title: string;
  description: string;
  price: number;
  currency: string;
  category: string | { id: number; name: string; slug?: string };
  condition_type?: string;
  condition?: string;
  location?: string;
  seller_location?: string;
  seller_id: number;
  seller_name?: string;
  seller?: {
    id: number;
    name: string;
    email: string;
  };
  seller_email?: string;
  seller_rating?: number;
  seller_verified?: boolean;
  images: string[];
  status: 'active' | 'sold' | 'inactive';
  views: number;
  original_price?: number;
  created_at: string;
  updated_at: string;
}
```

================================================================================
⚠️ MISMATCHES IDENTIFIED
================================================================================

1. IMAGE HANDLING:
   BACKEND: Returns both 'images' (array) AND 'images_urls' (full URLs array)
   FRONTEND: Expects 'images' to be string array of URLs
   
   ISSUE: Frontend needs full URLs, backend provides relative paths in 'images'
   SOLUTION: Frontend should use 'images_urls' instead of 'images'

2. CURRENCY FIELD:
   BACKEND: Does NOT provide 'currency' field
   FRONTEND: Expects 'currency' field
   
   SOLUTION: Add default currency or backend should provide it

3. PRICE TYPE:
   BACKEND: Returns price as string (decimal:2 cast)
   FRONTEND: Expects price as number
   
   SOLUTION: Frontend should parse string to number

4. SELLER DATA:
   BACKEND: Returns nested 'seller' object with id, name, email
   FRONTEND: Expects 'seller_name', 'seller_email' as separate fields
   
   STATUS: Frontend interface supports both formats ✅

5. LOCATION FIELDS:
   BACKEND: Does NOT provide 'location' or 'seller_location'
   FRONTEND: Expects these optional fields
   
   STATUS: Optional fields, no issue ✅

6. ADDITIONAL BACKEND FIELDS NOT IN FRONTEND:
   - stock (number)
   - primary_image (string)
   - primary_image_url (string)
   - thumbnail (string)
   - thumbnail_url (string)
   - brand (string)
   - weight (decimal)
   - dimensions (string)
   - featured (boolean)
   - sold (number)

7. CATEGORY FORMAT:
   BACKEND: Returns category as object { id, name }
   FRONTEND: Supports string | { id, name, slug? }
   
   STATUS: Compatible ✅

================================================================================
🔧 REQUIRED FIXES
================================================================================

OPTION 1: Update Backend (ProductController.php)
-------------------------------------------------
Add a transformer/resource to standardize the response:

```php
// In ProductController::index()
$products = $query->paginate($limit);

$transformedProducts = $products->map(function($product) {
    return [
        'id' => $product->id,
        'title' => $product->title,
        'description' => $product->description,
        'price' => (float) $product->price,
        'currency' => 'ZMW', // or from config
        'category' => $product->category,
        'condition' => $product->condition,
        'seller_id' => $product->seller_id,
        'seller_name' => $product->seller->name,
        'seller_email' => $product->seller->email,
        'seller' => $product->seller,
        'images' => $product->images_urls, // Use full URLs
        'status' => $product->status,
        'views' => $product->views,
        'created_at' => $product->created_at,
        'updated_at' => $product->updated_at,
    ];
});
```

OPTION 2: Update Frontend (Recommended - Less Backend Changes)
---------------------------------------------------------------
Update the marketplace page to handle backend response correctly:

```typescript
// In marketplace/page.tsx
const response = await marketplaceApi.getListings(cleanParams);

if (response.status === 'success') {
  const transformedListings = response.data.listings.map(product => ({
    ...product,
    price: parseFloat(product.price || 0),
    currency: 'ZMW',
    images: product.images_urls || product.images || [],
    seller_name: product.seller?.name,
    seller_email: product.seller?.email,
  }));
  
  setListings(transformedListings);
  setTotalCount(response.data.pagination?.total || 0);
}
```

================================================================================
✅ RECOMMENDED SOLUTION
================================================================================

IMPLEMENT OPTION 2 (Frontend Adaptation):
1. Keeps backend changes minimal
2. Frontend handles data transformation
3. Backward compatible if backend changes later

STEPS:
1. Update marketplace/page.tsx to transform backend data
2. Update ListingCard component to use images_urls
3. Update product detail page similarly
4. Add default currency handling

================================================================================
📝 ADDITIONAL VALIDATION NEEDED
================================================================================

ENDPOINTS TO TEST:
[ ] GET /products - List products (in progress)
[ ] GET /products/{id} - Single product detail
[ ] POST /products - Create product
[ ] PUT /products/{id} - Update product
[ ] DELETE /products/{id} - Delete product
[ ] GET /seller/products - Seller's own products

SEARCH & FILTER PARAMETERS TO TEST:
[ ] search=keyword
[ ] category=electronics
[ ] category_id=3
[ ] min_price=10
[ ] max_price=100
[ ] condition=new
[ ] sort=newest
[ ] sort=price_low
[ ] sort=price_high
[ ] sort=popular
[ ] page=2
[ ] per_page=20
[ ] limit=12

RESPONSE VALIDATION:
[ ] Status code 200 for success
[ ] Correct JSON structure
[ ] Pagination data accurate
[ ] Images URLs accessible
[ ] Seller data populated
[ ] Category data populated
[ ] Price format correct
[ ] Status field values valid

================================================================================
🚀 IMPLEMENTATION PRIORITY
================================================================================

HIGH PRIORITY (Blocking marketplace functionality):
1. Fix image URL handling in marketplace page
2. Add price parsing to number
3. Add default currency

MEDIUM PRIORITY (Enhancement):
4. Standardize seller data format
5. Add location fields if needed

LOW PRIORITY (Nice to have):
6. Add currency field to backend
7. Create Laravel API Resource for consistent formatting

================================================================================
END OF VALIDATION REPORT
================================================================================
